<svg viewBox="0 0 14 14" fill="none" xmlns="http://www.w3.org/2000/svg">
    <path d="M7.03238 13.125C6.52882 13.125 6.11993 12.7318 6.11993 12.2492H5.20749C5.20749 13.2147 6.02641 14 7.03238 14C8.03834 14 8.85726 13.2147 8.85726 12.2492H7.94482C7.94482 12.7318 7.53593 13.125 7.03238 13.125ZM13.0026 9.15496C12.2054 8.42707 11.5957 7.66527 11.5957 5.0832C11.5957 2.90691 9.78824 1.13203 7.4886 0.917383V0.4375C7.4886 0.195781 7.28444 0 7.03238 0C6.78031 0 6.57615 0.195781 6.57615 0.4375V0.917656C4.27651 1.1323 2.46902 2.90691 2.46902 5.0832C2.46902 7.665 1.85911 8.42707 1.06187 9.15496C0.663527 9.51863 0.537781 10.0685 0.741085 10.5558C0.948665 11.0534 1.44823 11.375 2.01394 11.375H12.0508C12.6165 11.375 13.1161 11.0532 13.3237 10.5555C13.527 10.0682 13.4009 9.51863 13.0026 9.15496V9.15496ZM12.0508 10.5H2.01394C1.60819 10.5 1.40546 10.0496 1.69117 9.78879C2.68516 8.88125 3.38147 7.86543 3.38147 5.08348C3.38147 3.24105 5.01445 1.75 7.03238 1.75C9.05001 1.75 10.6833 3.24078 10.6833 5.0832C10.6833 7.85449 11.3736 8.87578 12.3736 9.78852C12.6604 10.0507 12.4549 10.5 12.0508 10.5Z"
          fill="currentColor"/>
</svg>

