<svg viewBox="0 0 13 15" class="w-em h-em" fill="none" xmlns="http://www.w3.org/2000/svg">
    <path d="M11.6071 1.875H10.2143V0.351562C10.2143 0.158203 10.0576 0 9.86607 0H9.63393C9.44241 0 9.28571 0.158203 9.28571 0.351562V1.875H3.71429V0.351562C3.71429 0.158203 3.55759 0 3.36607 0H3.13393C2.94241 0 2.78571 0.158203 2.78571 0.351562V1.875H1.39286C0.623884 1.875 0 2.50488 0 3.28125V13.5938C0 14.3701 0.623884 15 1.39286 15H11.6071C12.3761 15 13 14.3701 13 13.5938V3.28125C13 2.50488 12.3761 1.875 11.6071 1.875ZM1.39286 2.8125H11.6071C11.8625 2.8125 12.0714 3.02344 12.0714 3.28125V4.6875H0.928571V3.28125C0.928571 3.02344 1.1375 2.8125 1.39286 2.8125ZM11.6071 14.0625H1.39286C1.1375 14.0625 0.928571 13.8516 0.928571 13.5938V5.625H12.0714V13.5938C12.0714 13.8516 11.8625 14.0625 11.6071 14.0625ZM4.29464 9.375H3.13393C2.94241 9.375 2.78571 9.2168 2.78571 9.02344V7.85156C2.78571 7.6582 2.94241 7.5 3.13393 7.5H4.29464C4.48616 7.5 4.64286 7.6582 4.64286 7.85156V9.02344C4.64286 9.2168 4.48616 9.375 4.29464 9.375ZM7.08036 9.375H5.91964C5.72812 9.375 5.57143 9.2168 5.57143 9.02344V7.85156C5.57143 7.6582 5.72812 7.5 5.91964 7.5H7.08036C7.27187 7.5 7.42857 7.6582 7.42857 7.85156V9.02344C7.42857 9.2168 7.27187 9.375 7.08036 9.375ZM9.86607 9.375H8.70536C8.51384 9.375 8.35714 9.2168 8.35714 9.02344V7.85156C8.35714 7.6582 8.51384 7.5 8.70536 7.5H9.86607C10.0576 7.5 10.2143 7.6582 10.2143 7.85156V9.02344C10.2143 9.2168 10.0576 9.375 9.86607 9.375ZM7.08036 12.1875H5.91964C5.72812 12.1875 5.57143 12.0293 5.57143 11.8359V10.6641C5.57143 10.4707 5.72812 10.3125 5.91964 10.3125H7.08036C7.27187 10.3125 7.42857 10.4707 7.42857 10.6641V11.8359C7.42857 12.0293 7.27187 12.1875 7.08036 12.1875ZM4.29464 12.1875H3.13393C2.94241 12.1875 2.78571 12.0293 2.78571 11.8359V10.6641C2.78571 10.4707 2.94241 10.3125 3.13393 10.3125H4.29464C4.48616 10.3125 4.64286 10.4707 4.64286 10.6641V11.8359C4.64286 12.0293 4.48616 12.1875 4.29464 12.1875ZM9.86607 12.1875H8.70536C8.51384 12.1875 8.35714 12.0293 8.35714 11.8359V10.6641C8.35714 10.4707 8.51384 10.3125 8.70536 10.3125H9.86607C10.0576 10.3125 10.2143 10.4707 10.2143 10.6641V11.8359C10.2143 12.0293 10.0576 12.1875 9.86607 12.1875Z" fill="currentColor"/>
</svg>
