<svg class="w-em h-em" viewBox="0 0 10 13" fill="none" xmlns="http://www.w3.org/2000/svg">
<path d="M5 2.4375C3.62148 2.4375 2.5 3.53095 2.5 4.875C2.5 6.21906 3.62148 7.3125 5 7.3125C6.37852 7.3125 7.5 6.21906 7.5 4.875C7.5 3.53095 6.37852 2.4375 5 2.4375ZM5 6.5C4.08099 6.5 3.33333 5.77104 3.33333 4.875C3.33333 3.97897 4.08099 3.25 5 3.25C5.91901 3.25 6.66667 3.97897 6.66667 4.875C6.66667 5.77104 5.91901 6.5 5 6.5ZM5 0C2.23857 0 0 2.1826 0 4.875C0 6.84057 0.702344 7.38946 4.48615 12.7377C4.73443 13.0874 5.26555 13.0875 5.51388 12.7377C9.29766 7.38946 10 6.84057 10 4.875C10 2.1826 7.76143 0 5 0ZM5 12.0334C1.37253 6.91864 0.833333 6.51255 0.833333 4.875C0.833333 3.78986 1.26674 2.76969 2.05372 2.00238C2.8407 1.23508 3.88703 0.8125 5 0.8125C6.11297 0.8125 7.1593 1.23508 7.94628 2.00238C8.73325 2.76969 9.16667 3.78986 9.16667 4.875C9.16667 6.51244 8.62781 6.91819 5 12.0334Z" fill="currentColor"/>
</svg>
