<svg class="w-full h-full" viewBox="0 0 4 16" fill="none" xmlns="http://www.w3.org/2000/svg">
<path fill-rule="evenodd" clip-rule="evenodd" d="M1.92089 4.36366C2.87741 4.36366 3.66002 3.54548 3.66002 2.54548C3.66002 1.54548 2.87741 0.727295 1.92089 0.727295C0.964371 0.727295 0.181763 1.54548 0.181763 2.54548C0.181763 3.54548 0.964371 4.36366 1.92089 4.36366ZM1.92089 6.18184C0.964371 6.18184 0.181763 7.00002 0.181763 8.00002C0.181763 9.00002 0.964371 9.81821 1.92089 9.81821C2.87741 9.81821 3.66002 9.00002 3.66002 8.00002C3.66002 7.00002 2.87741 6.18184 1.92089 6.18184ZM1.92089 11.6364C0.964371 11.6364 0.181763 12.4546 0.181763 13.4546C0.181763 14.4546 0.964371 15.2728 1.92089 15.2728C2.87741 15.2728 3.66002 14.4546 3.66002 13.4546C3.66002 12.4546 2.87741 11.6364 1.92089 11.6364Z" fill="currentColor"/>
</svg>

