<svg viewBox="0 0 400 400" fill="none" xmlns="http://www.w3.org/2000/svg">
<circle cx="200" cy="200" r="200" fill="#3E4454"/>
<path d="M111.8 187.429C125.699 187.429 137 176.154 137 162.286C137 148.418 125.699 137.143 111.8 137.143C97.9006 137.143 86.6 148.418 86.6 162.286C86.6 176.154 97.9006 187.429 111.8 187.429ZM288.2 187.429C302.099 187.429 313.4 176.154 313.4 162.286C313.4 148.418 302.099 137.143 288.2 137.143C274.301 137.143 263 148.418 263 162.286C263 176.154 274.301 187.429 288.2 187.429ZM300.8 200H275.6C268.67 200 262.409 202.789 257.842 207.307C273.71 215.989 284.971 231.664 287.413 250.286H313.4C320.369 250.286 326 244.668 326 237.714V225.143C326 211.275 314.699 200 300.8 200ZM200 200C224.373 200 244.1 180.318 244.1 156C244.1 131.682 224.373 112 200 112C175.627 112 155.9 131.682 155.9 156C155.9 180.318 175.627 200 200 200ZM230.24 212.571H226.972C218.782 216.5 209.686 218.857 200 218.857C190.314 218.857 181.258 216.5 173.028 212.571H169.76C144.718 212.571 124.4 232.843 124.4 257.829V269.143C124.4 279.554 132.866 288 143.3 288H256.7C267.134 288 275.6 279.554 275.6 269.143V257.829C275.6 232.843 255.283 212.571 230.24 212.571ZM142.158 207.307C137.591 202.789 131.33 200 124.4 200H99.2C85.3006 200 74 211.275 74 225.143V237.714C74 244.668 79.6306 250.286 86.6 250.286H112.548C115.029 231.664 126.29 215.989 142.158 207.307Z" fill="#333846"/>
<path d="M330.5 226.939V226.939C330.5 221.147 325.91 216.5 320.332 216.5C319.291 216.5 318.236 216.665 317.2 217.008C317.199 217.009 317.198 217.009 317.196 217.01L263.251 234.82L263.25 234.82C258.963 236.236 256.188 240.302 256.188 244.75V282.914C253.876 282.201 251.395 281.812 248.812 281.812C237.292 281.812 226.5 289.74 226.5 301.156C226.5 312.572 237.292 320.5 248.812 320.5C260.333 320.5 271.125 312.572 271.125 301.156V271.743L315.562 256.931V271.039C313.251 270.326 310.77 269.938 308.188 269.938C296.667 269.938 285.875 277.865 285.875 289.281C285.875 300.697 296.667 308.625 308.188 308.625C319.708 308.625 330.5 300.697 330.5 289.281C330.5 289.237 330.499 289.194 330.498 289.152L330.5 226.939ZM315.562 233.279V241.186L271.125 255.998V247.949L315.562 233.279ZM248.812 305.562C246.511 305.562 244.502 304.826 243.161 303.82C241.799 302.798 241.438 301.786 241.438 301.156C241.438 300.527 241.799 299.514 243.161 298.493C244.502 297.487 246.511 296.75 248.812 296.75C251.114 296.75 253.123 297.487 254.464 298.493C255.826 299.514 256.188 300.527 256.188 301.156C256.188 301.786 255.826 302.798 254.464 303.82C253.123 304.826 251.114 305.562 248.812 305.562ZM308.188 293.688C305.886 293.688 303.877 292.951 302.536 291.945C301.174 290.923 300.812 289.911 300.812 289.281C300.812 288.652 301.174 287.639 302.536 286.618C303.877 285.612 305.886 284.875 308.188 284.875C310.489 284.875 312.498 285.612 313.839 286.618C315.201 287.639 315.562 288.652 315.562 289.281C315.562 289.911 315.201 290.923 313.839 291.945C312.498 292.951 310.489 293.688 308.188 293.688Z" fill="#252A38" stroke="#3E4454" stroke-width="9"/>
</svg>
